# Material file for pattywagon.obj

newmtl patty
	Ns 0
	d 1
	illum 2
	Kd 0.8 0.8 0.8
	Ks 0.0 0.0 0.0
	Ka 0.2 0.2 0.2
	map_Kd Patty_Wagon.png

newmtl pat
	Ns 0
	d 1
	illum 2
	Kd 0.8 0.8 0.8
	Ks 0.0 0.0 0.0
	Ka 0.2 0.2 0.2
	map_Kd Char_Patrick.png

newmtl sb
	Ns 0
	d 1
	illum 2
	Kd 0.8 0.8 0.8
	Ks 0.0 0.0 0.0
	Ka 0.2 0.2 0.2
	map_Kd Spongebob_SquarePants.png

